{
  "project_info": {
    "project_number": "394360963952",
    "firebase_url": "https://fb-project1-a8117.firebaseio.com",
    "project_id": "fb-project1-a8117",
    "storage_bucket": "fb-project1-a8117.appspot.com"
  },
  "client": [
    {
      "client_info": {
        "mobilesdk_app_id": "1:394360963952:android:3f6e100979839d250005b5",
        "android_client_info": {
          "package_name": "com.tracepaths.io"
        }
      },
      "oauth_client": [
        {
          "client_id": "394360963952-4h1m0a32qpcr318eousasfigdioheoe0.apps.googleusercontent.com",
          "client_type": 3
        }
      ],
      "api_key": [
        {
          "current_key": "AIzaSyAgTzkhXk5-XfVSchDz0ppNsael9ubgpnE"
        }
      ],
      "services": {
        "appinvite_service": {
          "other_platform_oauth_client": [
            {
              "client_id": "394360963952-4h1m0a32qpcr318eousasfigdioheoe0.apps.googleusercontent.com",
              "client_type": 3
            }
          ]
        }
      }
    }
  ],
  "configuration_version": "1"
}